id,title,about,created_at,updated_at
1,ᠬᠠᠷ᠎ᠠ,,2010-07-29 01:35:43.000000,2010-07-29 01:35:43.000000
2,ᠬᠠᠷ᠎ᠠ ᠤᠯᠠᠭᠠᠨ,,2010-07-29 01:35:59.000000,2010-07-29 01:36:35.000000
3,ᠤᠯᠠᠭᠠᠨ ᠬᠠᠷ᠎ᠠ,,2010-07-29 01:36:13.000000,2010-07-29 01:36:13.000000
4,ᠤᠯᠠᠭᠠᠨ,,2010-07-29 01:36:24.000000,2010-07-29 01:36:24.000000
5,ᠬᠠᠷ᠎ᠠ ᠴᠠᠭᠠᠨ,,2010-07-29 05:37:38.000000,2010-07-29 05:37:38.000000
6,ᠴᠠᠭᠠᠨ ᠬᠠᠷ᠎ᠠ,,2010-07-29 05:38:16.000000,2010-07-29 05:38:16.000000
7,ᠣᠯᠠᠨ ᠦᠩᠭᠡᠳᠦ,,2010-08-03 09:04:16.000000,2010-08-03 09:04:16.000000
8,ᠠᠯᠳᠠᠨ,,2010-08-08 13:52:11.000000,2012-06-05 02:38:14.000000
9,ᠮᠦᠩᠭᠦᠨ,,2010-08-08 13:52:20.000000,2012-06-05 02:38:33.000000
10,ᠤᠯᠠᠭᠠᠨ ᠬᠦᠬᠡ,,2011-10-31 06:46:40.000000,2011-10-31 06:46:40.000000
15,ᠴᠠᠭᠠᠨ,,2012-07-07 23:49:43.000000,2012-07-07 23:49:43.000000
16,ᠥᠩᠭᠡᠲᠦ,,2012-08-16 07:59:07.000000,2012-08-16 07:59:07.000000
