id,title,about,slug,created_at,updated_at
1,ᠮᠣᠩᠭ᠋ᠤᠯ ᠦᠰᠦᠭ,,,2010-07-29 01:30:03.000000,2012-06-10 08:46:06.000000
2,ᠤᠶᠢᠭᠤᠷᠵᠢᠨ ᠮᠣᠨᠭᠭᠤᠯ ᠦᠰᠦᠭ,,,2010-07-29 01:30:03.000000,2012-06-10 08:46:35.000000
3,ᠬᠢᠲᠠᠳ ᠳᠥᠷᠪᠡᠯᠵᠢᠨ ᠦᠰᠦᠭ,,,2010-07-29 01:30:03.000000,2012-06-10 08:46:47.000000
4,ᠮᠣᠩᠭ᠋ᠤᠯ ᠳᠥᠷᠪᠡᠯᠵᠢᠨ ᠦᠰᠦᠭ,,,2010-07-29 01:30:03.000000,2012-06-10 08:46:57.000000
5,ᠲᠣᠳᠤ ᠦᠰᠦᠭ,,,2010-07-29 01:30:03.000000,2012-06-10 17:05:18.000000
6,ᠳᠥᠷᠪᠡᠯᠵᠢᠨ ᠦᠰᠦᠭ,,,2010-07-29 01:30:03.000000,2012-06-10 17:05:18.000000
7,ᠬᠢᠲᠠᠳ᠂ ᠮᠣᠩᠭ᠋ᠤᠯ ᠬᠠᠪᠰᠤᠷᠭᠠᠭᠰᠠᠨ,,,2010-07-29 01:30:03.000000,2012-06-10 17:05:18.000000
8,ᠬᠢᠲᠠᠳ᠂ ᠮᠣᠩᠭ᠋ᠤᠯ ᠬᠠᠷᠢᠴᠠᠭᠤᠯᠤᠭᠰᠠᠨ,,,2010-07-29 01:30:03.000000,2012-06-10 17:05:18.000000
9,ᠮᠣᠩᠭ᠋ᠤᠯ᠂ ᠬᠢᠲᠠᠳ ᠬᠠᠪᠰᠤᠷᠭᠠᠭᠰᠠᠨ,,,2010-07-29 01:30:03.000000,2012-06-10 17:05:18.000000
10,ᠮᠣᠩᠭ᠋ᠤᠯ᠂ ᠬᠢᠲᠠᠳ ᠬᠠᠷᠢᠴᠠᠭᠤᠯᠤᠭᠰᠠᠨ,,,2012-06-07 15:48:54.000000,2012-06-10 17:05:19.000000
11,ᠤᠶᠢᠭᠤᠷᠵᠢᠨ ᠮᠣᠩᠭ᠋ᠤᠯ᠂ ᠬᠢᠲᠠᠳ ᠬᠠᠪᠰᠤᠷᠭᠠᠭᠰᠠᠨ,,,2012-06-07 15:48:54.000000,2012-06-10 17:05:19.000000
12,ᠤᠶᠢᠭᠤᠷᠵᠢᠨ ᠮᠣᠩᠭ᠋ᠤᠯ᠂ ᠬᠢᠲᠠᠳ ᠳᠥᠷᠪᠡᠯᠵᠢᠨ ᠬᠠᠪᠰᠤᠷᠭᠠᠭᠰᠠᠨ,,,2012-06-07 15:48:54.000000,2012-06-10 17:05:19.000000
13,ᠤᠶᠢᠭᠤᠷᠵᠢᠨ ᠮᠣᠩᠭ᠋ᠤᠯ᠂ ᠮᠣᠩᠭ᠋ᠤᠯ ᠳᠥᠷᠪᠡᠯᠵᠢᠨ ᠬᠠᠪᠰᠤᠷᠭᠠᠭᠰᠠᠨ,,,2012-06-07 15:48:54.000000,2012-06-10 17:05:19.000000
14,ᠨᠠᠩᠭᠢᠶᠠᠳ᠂ ᠮᠣᠩᠭ᠋ᠤᠯ ᠬᠠᠪᠰᠤᠷᠭᠠᠭᠰᠠᠨ,,,2012-06-07 15:48:54.000000,2012-06-10 17:05:19.000000
15,ᠬᠢᠲᠠᠳ᠂ ᠮᠣᠩᠭ᠋ᠤᠯ ᠳᠥᠷᠪᠡᠯᠵᠢᠨ ᠬᠠᠪᠰᠤᠷᠭᠠᠭᠰᠠᠨ,,,2012-06-07 15:48:54.000000,2012-06-10 17:05:19.000000
16,ᠬᠢᠲᠠᠳ᠂ ᠤᠶᠢᠭᠤᠷᠵᠢᠨ ᠮᠣᠩᠭ᠋ᠤᠯ ᠬᠠᠪᠰᠤᠷᠭᠠᠭᠰᠠᠨ,,,2012-06-07 15:48:54.000000,2012-06-10 17:05:19.000000
17,ᠬᠢᠲᠠᠳ ᠳᠥᠷᠪᠡᠯᠵᠢᠨ᠂ ᠬᠢᠲᠠᠳ ᠬᠠᠪᠰᠤᠷᠭᠠᠭᠰᠠᠨ,,,2012-06-07 15:48:54.000000,2012-06-10 17:05:19.000000
18,ᠬᠢᠲᠠᠳ ᠳᠥᠷᠪᠡᠯᠵᠢᠨ᠂ ᠬᠢᠲᠠᠳ ᠬᠠᠷᠢᠴᠠᠭᠤᠯᠤᠭᠰᠠᠨ,,,2012-06-07 15:48:54.000000,2012-06-10 17:05:19.000000
19,ᠬᠢᠲᠠᠳ᠂ ᠬᠢᠲᠠᠳ ᠳᠥᠷᠪᠡᠯᠵᠢᠨ ᠬᠠᠪᠰᠤᠷᠭᠠᠭᠰᠠᠨ,,,2012-06-07 15:48:54.000000,2012-06-10 17:05:19.000000
20,ᠮᠠᠨᠵᠤ᠂ ᠬᠢᠲᠠᠳ ᠬᠠᠷᠢᠴᠠᠭᠤᠯᠤᠭᠰᠠᠨ,,,2012-06-07 15:48:54.000000,2012-06-10 17:05:19.000000
21,ᠮᠠᠨᠵᠤ᠂ ᠮᠣᠩᠭ᠋ᠤᠯ ᠬᠠᠪᠰᠤᠷᠭᠠᠭᠰᠠᠨ,,,2012-06-07 15:48:54.000000,2012-06-10 08:44:43.000000
22,ᠮᠠᠨᠵᠤ᠂ ᠮᠣᠩᠭ᠋ᠤᠯ ᠬᠠᠷᠢᠴᠠᠭᠤᠯᠤᠭᠰᠠᠨ,,,2012-06-07 15:48:54.000000,2012-06-10 17:05:19.000000
23,ᠮᠣᠩᠭ᠋ᠤᠯ᠂ ᠮᠠᠨᠵᠤ ᠬᠠᠪᠰᠤᠷᠭᠠᠭᠰᠠᠨ,,,2012-06-07 15:48:54.000000,2012-06-10 17:05:19.000000
24,ᠮᠣᠩᠭ᠋ᠤᠯ᠂ ᠮᠠᠨᠵᠤ ᠬᠠᠷᠢᠴᠠᠭᠤᠯᠤᠭᠰᠠᠨ,,,2012-06-07 15:48:54.000000,2012-06-10 17:05:19.000000
25,ᠮᠣᠩᠭ᠋ᠤᠯ᠂ ᠣᠷᠤᠰ ᠬᠠᠪᠰᠤᠷᠭᠠᠭᠰᠠᠨ,,,2012-06-07 15:48:54.000000,2012-06-10 17:05:19.000000
26,ᠮᠣᠩᠭ᠋ᠤᠯ᠂ ᠤᠶᠢᠭᠤᠷ ᠬᠠᠪᠰᠤᠷᠭᠠᠭᠰᠠᠨ,,,2012-06-07 15:48:54.000000,2012-06-10 17:05:19.000000
27,ᠮᠣᠩᠭ᠋ᠤᠯ᠂ ᠲᠥᠪᠡᠳ ᠬᠠᠪᠰᠤᠷᠭᠠᠭᠰᠠᠨ,,,2012-06-07 15:48:54.000000,2012-06-10 17:05:19.000000
28,ᠮᠣᠩᠭ᠋ᠤᠯ᠂ ᠲᠥᠪᠡᠳ ᠬᠠᠷᠢᠴᠠᠭᠤᠯᠤᠭᠰᠠᠨ,,,2012-06-07 15:48:54.000000,2012-06-10 17:05:19.000000
29,ᠮᠣᠩᠭ᠋ᠤᠯ ᠳᠥᠷᠪᠡᠯᠵᠢᠨ᠂ ᠤᠶᠢᠭᠤᠷ ᠬᠠᠪᠰᠤᠷᠭᠠᠭᠰᠠᠨ,,,2012-06-07 15:48:54.000000,2012-06-10 17:05:19.000000
30,ᠮᠣᠩᠭ᠋ᠤᠯ ᠳᠥᠷᠪᠡᠯᠵᠢᠨ᠂ ᠬᠢᠲᠠᠳ ᠬᠠᠪᠰᠤᠷᠭᠠᠭᠰᠠᠨ,,,2012-06-07 15:48:54.000000,2012-06-10 17:05:19.000000
31,ᠮᠣᠩᠭ᠋ᠤᠯ ᠳᠥᠷᠪᠡᠯᠵᠢᠨ᠂ ᠬᠢᠲᠠᠳ ᠬᠠᠷᠢᠴᠠᠭᠤᠯᠤᠭᠰᠠᠨ,,,2012-06-07 15:48:54.000000,2012-06-10 17:05:19.000000
32,ᠮᠣᠩᠭ᠋ᠤᠯ᠂ ᠶᠠᠫᠣᠨ ᠬᠠᠪᠰᠤᠷᠭᠠᠭᠰᠠᠨ,,,2012-06-07 15:48:54.000000,2012-06-10 17:05:19.000000
33,ᠮᠣᠩᠭ᠋ᠤᠯ᠂ ᠶᠠᠫᠣᠨ ᠬᠠᠷᠢᠴᠠᠭᠤᠯᠤᠭᠰᠠᠨ,,,2012-06-07 15:48:54.000000,2012-06-10 17:05:19.000000
34,ᠲᠣᠳᠤ ᠮᠣᠩᠭ᠋ᠤᠯ᠂ ᠣᠷᠤᠰ ᠬᠠᠷᠢᠴᠠᠭᠤᠯᠤᠭᠰᠠᠨ,,,2012-06-07 15:48:54.000000,2012-06-10 17:05:19.000000
35,ᠲᠣᠳᠤ ᠮᠣᠩᠭ᠋ᠤᠯ᠂ ᠬᠢᠲᠠᠳ ᠬᠠᠪᠰᠤᠷᠭᠠᠭᠰᠠᠨ,,,2012-06-07 15:48:55.000000,2012-06-10 17:05:19.000000
36,ᠲᠣᠳᠤ ᠮᠣᠩᠭ᠋ᠤᠯ᠂ ᠲᠥᠪᠡᠳ ᠬᠠᠷᠢᠴᠠᠭᠤᠯᠤᠭᠰᠠᠨ,,,2012-06-07 15:48:55.000000,2012-06-10 17:05:19.000000
37,ᠲᠥᠪᠡᠳ᠂ ᠲᠣᠳᠤ ᠮᠣᠩᠭ᠋ᠤᠯ ᠬᠠᠪᠰᠤᠷᠭᠠᠭᠰᠨᠨ,,,2012-06-07 15:48:55.000000,2012-06-10 17:05:19.000000
38,ᠲᠥᠪᠡᠳ᠂ ᠲᠣᠳᠤ ᠮᠣᠩᠭ᠋ᠤᠯ ᠬᠠᠷᠢᠴᠭᠠᠤᠯᠤᠭᠰᠠᠨ,,,2012-06-07 15:48:55.000000,2012-06-10 17:05:19.000000
39,ᠲᠥᠪᠡᠳ᠂ ᠮᠣᠩᠭ᠋ᠤᠯ ᠬᠠᠷᠢᠴᠠᠭᠤᠯᠤᠭᠰᠠᠨ,,,2012-06-07 15:48:55.000000,2012-06-10 17:05:19.000000
40,ᠲᠥᠪᠡᠳ᠂ ᠮᠣᠩᠭ᠋ᠤᠯ ᠬᠠᠪᠰᠤᠷᠭᠠᠭᠰᠠᠨ,,,2012-06-07 15:48:55.000000,2012-06-10 17:05:19.000000
41,ᠶᠠᠫᠣᠨ᠂ ᠮᠣᠩᠭ᠋ᠤᠯ ᠬᠠᠷᠢᠴᠠᠭᠤᠯᠤᠭᠰᠠᠨ,,,2012-06-07 15:48:55.000000,2012-06-10 17:05:19.000000
42,ᠶᠠᠫᠣᠨ᠂ ᠮᠣᠩᠭ᠋ᠤᠯ ᠬᠠᠪᠰᠤᠷᠭᠠᠵᠤ᠂ ᠣᠯᠠᠨ ᠤᠯᠤᠰ ᠤᠨ ᠭᠠᠯᠢᠭ ᠬᠠᠳᠠᠵᠠᠢ,,,2012-06-07 15:48:55.000000,2012-06-10 17:05:19.000000
43,ᠮᠠᠨᠵᠤ᠂ ᠮᠣᠩᠭ᠋ᠤᠯ᠂ ᠬᠢᠲᠠᠳ ᠬᠠᠪᠰᠤᠷᠭᠠᠭᠰᠠᠨ,,,2012-06-07 15:48:55.000000,2012-06-10 17:05:19.000000
44,ᠮᠠᠨᠵᠤ᠂ ᠮᠣᠩᠭ᠋ᠤᠯ᠂ ᠬᠢᠲᠠᠳ ᠬᠠᠷᠢᠴᠠᠭᠤᠯᠤᠭᠰᠠᠨ,,,2012-06-07 15:48:55.000000,2012-06-10 17:05:19.000000
45,ᠮᠣᠩᠭ᠋ᠤᠯ᠂ ᠬᠢᠲᠠᠳ᠂ ᠮᠠᠨᠵᠤ ᠬᠠᠷᠢᠴᠠᠭᠤᠯᠤᠭᠰᠠᠨ,,,2012-06-07 15:48:55.000000,2012-06-10 17:05:19.000000
46,ᠮᠣᠩᠭ᠋ᠤᠯ᠂ ᠬᠢᠲᠠᠳ᠂ ᠲᠥᠪᠡᠳ ᠬᠠᠪᠰᠤᠷᠭᠠᠭᠰᠠᠨ,,,2012-06-07 15:48:55.000000,2012-06-10 17:05:19.000000
47,ᠮᠣᠩᠭ᠋ᠤᠯ᠂ ᠮᠠᠨᠵᠤ᠂ ᠬᠢᠲᠠᠳ ᠬᠠᠷᠢᠴᠠᠭᠤᠯᠤᠭᠰᠠᠨ,,,2012-06-07 15:48:55.000000,2012-06-10 17:05:19.000000
48,ᠬᠢᠲᠠᠳ᠂ ᠮᠠᠨᠵᠤ᠂ ᠮᠣᠩᠭ᠋ᠤᠯ ᠬᠠᠪᠰᠤᠷᠭᠠᠭᠰᠠᠨ,,,2012-06-07 15:48:55.000000,2012-06-10 17:05:19.000000
49,ᠬᠢᠲᠠᠳ᠂ ᠮᠠᠨᠵᠤ᠂ ᠮᠣᠩᠭ᠋ᠤᠯ ᠬᠠᠷᠢᠴᠠᠭᠤᠯᠤᠭᠰᠠᠨ,,,2012-06-07 15:48:55.000000,2012-06-10 17:05:20.000000
50,ᠬᠢᠲᠠᠳ᠂ ᠮᠣᠩᠭ᠋ᠤᠯ᠂ ᠮᠠᠨᠵᠤ ᠬᠠᠷᠢᠴᠠᠭᠤᠯᠤᠭᠰᠠᠨ,,,2012-06-07 15:48:55.000000,2012-06-10 17:05:20.000000
51,ᠬᠢᠲᠠᠳ᠂ ᠮᠣᠩᠭ᠋ᠤᠯ᠂ ᠲᠥᠪᠡᠳ ᠬᠠᠪᠰᠤᠷᠭᠠᠭᠰᠠᠨ,,,2012-06-07 15:48:55.000000,2012-06-10 17:05:20.000000
52,ᠬᠢᠲᠠᠳ᠂ ᠮᠣᠩᠭ᠋ᠤᠯ᠂ ᠲᠥᠪᠡᠳ ᠬᠠᠷᠢᠴᠠᠭᠤᠯᠤᠭᠰᠠᠨ,,,2012-06-07 15:48:55.000000,2012-06-10 17:05:20.000000
53,ᠬᠢᠲᠠᠳ ᠳᠥᠷᠪᠡᠯᠵᠢᠨ᠂ ᠮᠣᠩᠭ᠋ᠤᠯ ᠳᠥᠷᠪᠡᠯᠵᠢᠨ᠂ ᠬᠢᠲᠠᠳ ᠬᠠᠪᠰᠤᠷᠭᠠᠭᠰᠠᠨ,,,2012-06-07 15:48:55.000000,2012-06-10 17:05:20.000000
54,ᠮᠠᠨᠵᠤ᠂ ᠬᠢᠲᠠᠳ᠂ ᠮᠣᠩᠭ᠋ᠤᠯ ᠬᠠᠪᠰᠤᠷᠭᠠᠭᠰᠠᠨ,,,2012-06-07 15:48:55.000000,2012-06-10 17:05:20.000000
55,ᠮᠠᠨᠵᠤ᠂ ᠬᠢᠲᠠᠳ᠂ ᠮᠣᠩᠭ᠋ᠤᠯ ᠬᠠᠷᠢᠴᠠᠭᠤᠯᠤᠭᠰᠠᠨ,,,2012-06-07 15:48:55.000000,2012-06-10 17:05:20.000000
56,ᠮᠠᠨᠵᠤ᠂ ᠮᠣᠩᠭ᠋ᠤᠯ᠂ ᠬᠢᠲᠠᠳ ᠬᠠᠪᠰᠤᠷᠭᠠᠭᠰᠠᠨ,,,2012-06-07 15:48:55.000000,2012-06-10 17:05:20.000000
57,ᠮᠠᠨᠵᠤ᠂ ᠮᠣᠩᠭ᠋ᠤᠯ᠂ ᠲᠥᠪᠡᠳ ᠬᠠᠪᠰᠤᠷᠭᠠᠭᠰᠠᠨ,,,2012-06-07 15:48:55.000000,2012-06-10 17:05:20.000000
58,ᠮᠠᠨᠵᠤ᠂ ᠮᠣᠩᠭ᠋ᠤᠯ᠂ ᠲᠥᠪᠡᠳ ᠬᠠᠷᠢᠴᠠᠭᠤᠯᠤᠭᠰᠠᠨ,,,2012-06-07 15:48:55.000000,2012-06-10 17:05:20.000000
59,ᠮᠣᠩᠭ᠋ᠤᠯ᠂ ᠬᠢᠲᠠᠳ᠂ ᠮᠠᠨᠵᠤ ᠬᠠᠪᠰᠤᠷᠭᠠᠭᠰᠠᠨ,,,2012-06-07 15:48:55.000000,2012-06-10 17:05:20.000000
60,ᠮᠣᠩᠭ᠋ᠤᠯ᠂ ᠬᠢᠲᠠᠳ᠂ ᠲᠥᠪᠡᠳ ᠬᠠᠷᠢᠴᠠᠭᠤᠯᠤᠭᠰᠠᠨ,,,2012-06-07 15:48:55.000000,2012-06-10 17:05:20.000000
61,ᠮᠣᠩᠭ᠋ᠤᠯ᠂ ᠮᠠᠨᠵᠤ᠂ ᠬᠢᠲᠠᠳ ᠬᠠᠪᠰᠤᠷᠭᠠᠭᠰᠠᠨ,,,2012-06-07 15:48:55.000000,2012-06-10 17:05:20.000000
62,ᠮᠣᠩᠭ᠋ᠤᠯ᠂ ᠮᠠᠨᠵᠤ᠂ ᠲᠥᠪᠡᠳ ᠬᠠᠷᠢᠴᠠᠭᠤᠯᠤᠭᠰᠠᠨ,,,2012-06-07 15:48:55.000000,2012-06-10 17:05:20.000000
63,ᠮᠣᠩᠭ᠋ᠤᠯ᠂ ᠲᠥᠪᠡᠳ᠂ ᠬᠢᠲᠠᠳ,,,2012-06-07 15:48:55.000000,2012-06-10 17:05:20.000000
64,ᠮᠣᠩᠭ᠋ᠤᠯ᠂ ᠲᠥᠪᠡᠳ᠂ ᠬᠢᠲᠠᠳ ᠬᠠᠪᠰᠤᠷᠭᠠᠭᠰᠠᠨ,,,2012-06-07 15:48:55.000000,2012-06-10 17:05:20.000000
65,ᠮᠣᠩᠭ᠋ᠤᠯ᠂ ᠲᠥᠪᠡᠳ᠂ ᠬᠢᠲᠠᠳ ᠬᠠᠷᠢᠴᠠᠭᠤᠯᠤᠭᠰᠠᠨ,,,2012-06-07 15:48:55.000000,2012-06-10 17:05:20.000000
66,ᠮᠣᠩᠭ᠋ᠤᠯ ᠳᠥᠷᠪᠡᠯᠵᠢᠨ᠂ ᠫᠧᠷᠰ᠂ ᠬᠢᠲᠠᠳ ᠬᠠᠪᠰᠤᠷᠭᠠᠭᠰᠠᠨ,,,2012-06-07 15:48:55.000000,2012-06-10 17:05:20.000000
67,ᠰᠠᠨᠰᠺᠷᠢᠲ᠂ ᠲᠥᠪᠡᠳ᠂ ᠮᠣᠩᠭ᠋ᠤᠯ ᠬᠠᠪᠰᠤᠷᠭᠠᠭᠰᠠᠨ,,,2012-06-07 15:48:55.000000,2012-06-10 17:05:20.000000
68,ᠰᠠᠨᠰᠺᠷᠢᠲ᠂ ᠲᠥᠪᠡᠳ᠂ ᠮᠣᠩᠭ᠋ᠤᠯ ᠬᠠᠷᠢᠴᠠᠭᠤᠯᠤᠭᠰᠠᠨ,,,2012-06-07 15:48:56.000000,2012-06-10 17:05:20.000000
69,ᠲᠥᠪᠡᠳ᠂ ᠬᠢᠲᠠᠳ᠂ ᠮᠣᠩᠭ᠋ᠤᠯ ᠬᠠᠪᠰᠤᠷᠭᠠᠭᠰᠠᠨ,,,2012-06-07 15:48:56.000000,2012-06-10 17:05:20.000000
70,ᠲᠥᠪᠡᠳ᠂ ᠬᠢᠲᠠᠳ᠂ ᠮᠣᠩᠭ᠋ᠤᠯ ᠬᠠᠷᠢᠴᠠᠭᠤᠯᠤᠭᠰᠠᠨ,,,2012-06-07 15:48:56.000000,2012-06-10 17:05:20.000000
71,ᠲᠥᠪᠡᠳ᠂ ᠮᠣᠩᠭ᠋ᠤᠯ᠂ ᠬᠢᠲᠠᠳ ᠬᠠᠷᠢᠴᠠᠭᠤᠯᠤᠭᠰᠠᠨ,,,2012-06-07 15:48:56.000000,2012-06-10 17:05:20.000000
72,ᠲᠥᠪᠡᠳ᠂ ᠮᠣᠩᠭ᠋ᠤᠯ᠂ ᠬᠢᠲᠠᠳ,,,2012-06-07 15:48:56.000000,2012-06-10 17:05:20.000000
73,ᠲᠦᠪᠡᠳ᠂ ᠮᠣᠩᠭ᠋ᠤᠯ᠂ ᠮᠠᠨᠵᠦ ᠬᠠᠷᠢᠴᠠᠭᠤᠯᠤᠭᠰᠠᠨ,,,2012-06-07 15:48:56.000000,2012-06-10 17:05:20.000000
74,ᠬᠢᠲᠠᠳ᠂ ᠤᠶᠢᠭᠤᠷ᠂ ᠮᠣᠩᠭ᠋ᠤᠯ᠂ ᠲᠥᠪᠡᠳ ᠬᠠᠪᠰᠤᠷᠭᠠᠭᠰᠠᠨ,,,2012-06-07 15:48:56.000000,2012-06-10 17:05:20.000000
75,ᠬᠢᠲᠠᠳ᠂ ᠮᠠᠨᠵᠤ᠂ ᠮᠣᠩᠭ᠋ᠤᠯ᠂ ᠲᠥᠪᠡᠳ ᠬᠠᠪᠰᠤᠷᠭᠠᠭᠰᠠᠨ,,,2012-06-07 15:48:56.000000,2012-06-10 17:05:20.000000
76,ᠬᠢᠲᠠᠳ᠂ ᠮᠣᠩᠭ᠋ᠤᠯ᠂ ᠲᠥᠪᠡᠳ᠂ ᠤᠶᠢᠭᠤᠷ ᠬᠠᠪᠰᠤᠷᠭᠠᠭᠰᠠᠨ,,,2012-06-07 15:48:56.000000,2012-06-10 17:05:20.000000
77,ᠬᠢᠲᠠᠳ᠂ ᠲᠦᠪᠡᠳ᠂ ᠮᠠᠨᠵᠤ᠂ ᠮᠣᠩᠭ᠋ᠤᠯ ᠬᠠᠷᠢᠴᠠᠭᠤᠯᠤᠭᠰᠠᠨ,,,2012-06-07 15:48:56.000000,2012-06-10 17:05:20.000000
78,ᠬᠢᠲᠠᠳ᠂ ᠬᠢᠲᠠᠳ ᠳᠥᠷᠪᠡᠯᠵᠢᠨ᠂ ᠮᠣᠩᠭ᠋ᠤᠯ ᠳᠥᠷᠪᠡᠯᠵᠢᠨ᠂ ᠫᠧᠷᠰ ᠬᠠᠪᠰᠤᠷᠭᠠᠭᠰᠠᠨ,,,2012-06-07 15:48:56.000000,2012-06-10 17:05:20.000000
79,ᠮᠠᠨᠵᠤ᠂ ᠬᠢᠲᠠᠳ᠂ ᠮᠣᠩᠭ᠋ᠤᠯ᠂ ᠲᠥᠪᠡᠳ ᠬᠠᠪᠰᠤᠷᠭᠠᠭᠰᠠᠨ,,,2012-06-07 15:48:56.000000,2012-06-10 17:05:20.000000
80,ᠮᠠᠨᠵᠤ᠂ ᠬᠢᠲᠠᠳ᠂ ᠲᠥᠪᠡᠳ᠂ ᠮᠣᠩᠭ᠋ᠤᠯ ᠬᠠᠪᠰᠤᠷᠭᠠᠭᠰᠠᠨ,,,2012-06-07 15:48:56.000000,2012-06-10 17:05:20.000000
81,ᠮᠠᠨᠵᠤ᠂ ᠬᠢᠲᠠᠳ᠂ ᠲᠥᠪᠡᠳ᠂ ᠮᠣᠩᠭ᠋ᠤᠯ ᠬᠠᠷᠢᠴᠠᠭᠤᠯᠤᠭᠰᠠᠨ,,,2012-06-07 15:48:56.000000,2012-06-10 17:05:20.000000
82,ᠮᠠᠨᠵᠤ᠂ ᠮᠣᠩᠭ᠋ᠤᠯ᠂ ᠠᠨ ᠨᠠᠨ᠂ ᠬᠢᠲᠠᠳ ᠬᠠᠷᠢᠴᠠᠭᠤᠯᠤᠭᠰᠠᠨ,,,2012-06-07 15:48:56.000000,2012-06-10 17:05:20.000000
83,ᠮᠠᠨᠵᠤ᠂ ᠮᠣᠩᠭ᠋ᠤᠯ᠂ ᠬᠢᠲᠠᠳ᠂ ᠲᠥᠪᠡᠳ ᠬᠠᠪᠰᠤᠷᠭᠠᠭᠰᠠᠨ,,,2012-06-07 15:48:56.000000,2012-06-10 17:05:20.000000
84,ᠮᠠᠨᠵᠤ᠂ ᠮᠣᠩᠭ᠋ᠤᠯ᠂ ᠬᠢᠲᠠᠳ᠂ ᠲᠥᠪᠡᠳ ᠬᠠᠷᠢᠴᠠᠭᠤᠯᠤᠭᠰᠠᠨ,,,2012-06-07 15:48:56.000000,2012-06-10 17:05:20.000000
85,ᠮᠠᠨᠵᠤ᠂ ᠮᠣᠩᠭ᠋ᠤᠯ᠂ ᠰᠠᠨᠰᠺᠷᠢᠲ᠂ ᠬᠢᠲᠠᠳ ᠬᠠᠷᠢᠴᠠᠭᠤᠯᠤᠭᠰᠠᠨ,,,2012-06-07 15:48:56.000000,2012-06-10 17:05:20.000000
86,ᠮᠠᠨᠵᠤ᠂ ᠮᠣᠩᠭ᠋ᠤᠯ᠂ ᠲᠣᠳᠤ ᠮᠣᠩᠭ᠋ᠤᠯ᠂ ᠬᠢᠲᠠᠳ ᠬᠠᠷᠢᠴᠠᠭᠤᠯᠤᠭᠰᠠᠨ,,,2012-06-07 15:48:56.000000,2012-06-10 17:05:20.000000
87,ᠮᠠᠨᠵᠤ᠂ ᠮᠣᠩᠭ᠋ᠤᠯ᠂ ᠲᠥᠪᠡᠳ᠂ ᠬᠢᠲᠠᠳ ᠬᠠᠪᠰᠤᠷᠭᠠᠭᠰᠠᠨ,,,2012-06-07 15:48:56.000000,2012-06-10 17:05:21.000000
88,ᠮᠠᠨᠵᠤ᠂ ᠮᠣᠩᠭ᠋ᠤᠯ᠂ ᠲᠥᠪᠡᠳ᠂ ᠬᠢᠲᠠᠳ ᠬᠠᠷᠢᠴᠠᠭᠤᠯᠤᠭᠰᠠᠨ,,,2012-06-07 15:48:56.000000,2012-06-10 17:05:21.000000
89,ᠮᠠᠨᠵᠤ᠂ ᠲᠥᠪᠡᠳ᠂ ᠮᠣᠩᠭ᠋ᠤᠯ᠂ ᠬᠢᠲᠠᠳ ᠬᠠᠷᠢᠴᠠᠭᠤᠯᠤᠭᠰᠠᠨ,,,2012-06-07 15:48:56.000000,2012-06-10 17:05:21.000000
90,ᠮᠣᠩᠭ᠋ᠤᠯ᠂ ᠮᠠᠨᠵᠤ᠂ ᠲᠥᠪᠡᠳ᠂ ᠬᠢᠲᠠᠳ ᠬᠠᠷᠢᠴᠠᠭᠤᠯᠤᠭᠰᠠᠨ,,,2012-06-07 15:48:56.000000,2012-06-10 17:05:21.000000
91,ᠮᠣᠩᠭ᠋ᠤᠯ᠂ ᠲᠥᠪᠡᠳ᠂ ᠤᠶᠢᠭᠤᠷ᠂ ᠬᠢᠲᠠᠳ ᠬᠠᠪᠰᠤᠷᠭᠠᠭᠰᠠᠨ,,,2012-06-07 15:48:56.000000,2012-06-10 17:05:21.000000
92,ᠮᠣᠩᠭ᠋ᠤᠯ᠂ ᠲᠥᠪᠡᠳ᠂ ᠤᠶᠢᠭᠤᠷ᠂ ᠬᠢᠲᠠᠳ ᠬᠠᠷᠢᠴᠠᠭᠤᠯᠤᠭᠰᠠᠨ,,,2012-06-07 15:48:56.000000,2012-06-10 17:05:21.000000
93,ᠮᠣᠩᠭ᠋ᠤᠯ ᠳᠥᠷᠪᠡᠯᠵᠢᠨ᠂ ᠤᠶᠢᠭᠤᠷᠵᠢᠨ ᠮᠣᠩᠭ᠋ᠤᠯ᠂ ᠫᠧᠷᠰ᠂ ᠬᠢᠲᠠᠳ ᠬᠠᠪᠰᠤᠷᠭᠠᠭᠰᠠᠨ,,,2012-06-07 15:48:56.000000,2012-06-10 17:05:21.000000
94,ᠰᠠᠨᠰᠺᠷᠢᠲ᠂ ᠲᠥᠪᠡᠳ᠂ ᠤᠶᠢᠭᠤᠷᠵᠢᠨ ᠮᠣᠩ᠋᠋ᠭᠤᠯ᠂ ᠮᠣᠩᠭ᠋ᠤᠯ ᠳᠥᠷᠪᠡᠯᠵᠢᠨ ᠬᠠᠪᠰᠤᠷᠭᠠᠭᠰᠠᠨ,,,2012-06-07 15:48:56.000000,2012-06-10 17:05:21.000000
95,ᠲᠥᠪᠡᠳ᠂ ᠬᠢᠲᠠᠳ᠂ ᠮᠠᠨᠵᠤ᠂ ᠮᠣᠩᠭ᠋ᠤᠯ ᠬᠠᠷᠢᠴᠠᠭᠤᠯᠤᠭᠰᠠᠨ,,,2012-06-07 15:48:56.000000,2012-06-10 17:05:21.000000
96,ᠲᠥᠪᠡᠳ᠂ ᠮᠠᠨᠵᠤ᠂ ᠮᠣᠩᠭ᠋ᠤᠯ᠂ ᠬᠢᠲᠠᠳ ᠬᠠᠷᠢᠴᠠᠭᠤᠯᠤᠭᠰᠠᠨ,,,2012-06-07 15:48:56.000000,2012-06-10 17:05:21.000000
97,ᠲᠥᠪᠡᠳ᠂ ᠮᠣᠩᠭ᠋ᠤᠯ᠂ ᠮᠠᠨᠵᠤ᠂ ᠬᠢᠲᠠᠳ ᠬᠠᠪᠰᠤᠷᠭᠠᠭᠰᠠᠨ,,,2012-06-07 15:48:56.000000,2012-06-10 17:05:21.000000
98,ᠲᠥᠪᠡᠳ᠂ ᠮᠣᠩᠭ᠋ᠤᠯ᠂ ᠬᠢᠲᠠᠳ᠂ ᠮᠠᠨᠵᠤ ᠬᠠᠪᠰᠤᠷᠭᠠᠭᠰᠠᠨ,,,2012-06-07 15:48:56.000000,2012-06-10 17:05:21.000000
99,ᠮᠠᠨᠵᠤ᠂ ᠲᠥᠪᠡᠳ᠂ ᠮᠣᠩᠭ᠋ᠤᠯ᠂ ᠤᠶᠢᠭᠤᠷ᠂ ᠬᠢᠲᠠᠳ ᠬᠠᠷᠢᠴᠠᠭᠤᠯᠤᠭᠰᠠᠨ,,,2012-06-07 15:48:56.000000,2012-06-10 17:05:21.000000
100,ᠮᠣᠩᠭ᠋ᠤᠯ᠂ ᠤᠶᠢᠭᠤᠷ᠂ ᠬᠢᠲᠠᠳ᠂ ᠲᠥᠪᠡᠳ᠂ ᠮᠠᠨᠵᠤ ᠬᠠᠪᠰᠤᠷᠭᠠᠭᠰᠠᠨ,,,2012-06-07 15:48:56.000000,2012-06-10 17:05:21.000000
101,ᠮᠣᠩᠭ᠋ᠤᠯ ᠳᠥᠷᠪᠡᠯᠵᠢᠨ᠂ ᠤᠶᠢᠭᠤᠷᠵᠢᠨ ᠮᠣᠩᠭ᠋ᠤᠯ᠂ ᠫᠧᠷᠰ᠂ ᠲᠥᠪᠡᠳ᠂ ᠬᠢᠲᠠᠳ ᠬᠠᠪᠰᠤᠷᠭᠠᠭᠰᠠᠨ,,,2012-06-07 15:48:57.000000,2012-06-10 17:05:21.000000
102,ᠰᠠᠨᠰᠺᠷᠢᠲ᠂ ᠲᠥᠪᠡᠳ᠂ ᠮᠠᠨᠵᠤ᠂ ᠮᠣᠩᠭ᠋ᠤᠯ᠂ ᠬᠢᠲᠠᠳ ᠬᠠᠷᠢᠴᠠᠭᠤᠯᠤᠭᠰᠠᠨ,,,2012-06-07 15:48:57.000000,2012-06-10 17:05:21.000000
103,ᠲᠥᠪᠡᠳ᠂ ᠬᠢᠲᠠᠳ᠂ ᠰᠠᠨᠰᠺᠷᠢᠲ᠋᠂ ᠮᠣᠩᠭ᠋ᠤᠯ᠂ ᠮᠠᠨᠵᠤ ᠬᠠᠷᠢᠴᠠᠭᠤᠯᠤᠭᠰᠠᠨ,,,2012-06-07 15:48:57.000000,2012-06-10 17:05:21.000000
104,ᠬᠢᠲᠠᠳ᠂ ᠮᠠᠨᠵᠤ᠂ ᠮᠣᠩᠭ᠋ᠤᠯ᠂ ᠲᠥᠪᠡᠳ᠂ ᠲᠣᠳᠤ ᠮᠣᠩᠭ᠋ᠤᠯ ᠂ ᠤᠶᠢᠭᠤᠷ ᠬᠠᠪᠰᠤᠷᠭᠠᠭᠰᠠᠨ,,,2012-06-07 15:48:57.000000,2012-06-10 17:05:21.000000
105,ᠮᠠᠨᠵᠤ᠂ ᠬᠢᠲᠠᠳ᠂ ᠮᠣᠩᠭ᠋ᠤᠯ᠂ ᠲᠥᠪᠡᠳ᠂ ᠲᠣᠳᠤ ᠮᠣᠩᠭ᠋ᠤᠯ ᠂ ᠤᠶᠢᠭᠤᠷ ᠬᠠᠷᠢᠴᠠᠭᠤᠯᠤᠭᠰᠠᠨ,,,2012-06-07 15:48:57.000000,2012-06-10 17:05:21.000000
106,ᠰᠠᠨᠰᠺᠷᠢᠲ᠂ ᠲᠥᠪᠡᠳ᠂ ᠤᠶᠢᠭᠤᠷ᠂ ᠳᠥᠷᠪᠡᠯᠵᠢᠨ᠂ ᠲᠠᠩᠭ᠋ᠤᠳ᠂ ᠬᠢᠲᠠᠳ ᠬᠠᠪᠰᠤᠷᠭᠠᠭᠰᠠᠨ,,,2012-06-07 15:48:57.000000,2012-06-10 17:05:21.000000
107,ᠰᠠᠨᠰᠺᠷᠢᠲ᠂ ᠲᠥᠪᠡᠳ᠂ ᠮᠣᠩᠭ᠋ᠤᠯ ᠳᠥᠷᠪᠡᠯᠵᠢᠨ᠂ ᠤᠶᠢᠭᠤᠷ᠂ ᠲᠠᠩᠭ᠋ᠤᠳ᠂ ᠬᠢᠲᠠᠳ ᠬᠠᠪᠰᠤᠷᠭᠠᠭᠰᠠᠨ,,,2012-06-07 15:48:57.000000,2012-06-07 15:48:57.000000
