id,title,about,created_at,updated_at
1,ᠴᠠᠭᠠᠰᠤ,,2010-07-29 01:37:50.000000,2010-07-29 01:37:50.000000
2,ᠪᠦᠰ,,2010-07-29 01:38:04.000000,2010-07-29 01:38:04.000000
4,ᠴᠢᠯᠠᠭᠤ,,2010-07-29 01:38:27.000000,2010-07-29 01:38:27.000000
5,ᠹᠢᠯᠢᠮ,,2010-07-29 01:38:34.000000,2010-07-29 01:38:34.000000
6,ᠲᠡᠮᠦᠷᠯᠢᠭ,,2010-12-20 12:53:10.000000,2012-07-08 00:06:10.000000
7,ᠬᠠᠰ,,2010-12-20 13:18:45.000000,2010-12-20 13:18:45.000000
8,ᠰᠢᠷᠣᠶ,,2011-01-03 13:13:59.000000,2012-06-04 13:37:44.000000
9,ᠲᠣᠳᠤᠷᠬᠠᠢ ᠪᠤᠰᠤ,,2011-01-06 03:15:02.000000,2011-01-06 03:15:02.000000
10,ᠮᠥᠩᠭᠦ,,2012-06-04 13:38:27.000000,2012-06-04 13:38:27.000000
11,ᠬᠦᠷᠡᠯ,,2012-06-04 13:38:39.000000,2012-06-04 13:38:39.000000
12,ᠰᠢᠷᠡᠮᠦ,,2012-06-04 13:38:46.000000,2012-06-04 13:38:46.000000
13,ᠠᠯᠲᠠ,,2012-06-04 13:39:01.000000,2012-06-04 13:39:01.000000
14,ᠮᠣᠳᠤ,,2012-06-04 13:39:13.000000,2012-06-04 13:42:10.000000
16,ᠵᠦᠭᠠᠩ,,2012-06-05 04:15:45.000000,2012-06-05 04:15:45.000000
17,ᠲᠤᠭᠤᠰᠬ ᠠ,,2012-06-05 12:49:15.000000,2012-06-05 12:49:15.000000
